Gense;Quentin;H;2002-04-08
BARAS;Hugo;H;2002-07-02
RÉGNIER;Baptiste;H;2003-06-30
FLANDRINCK;Alister;H;2001-12-21
DIE;Martin;H;2003-03-02
HENIART;Loan;H;2003-10-01
LAUDE;Axel;H;2003-10-22
SCOTTEZ;Valentin;H;1997-09-21
Marris-Binet;Maxence;H;1998-05-15
HAMMEMI;Nour Allah;H;1997-08-18
SAINTENOY;Tom;H;2002-06-03
NABE;Aboubacar;H;2002-02-25
Dronneau;Mathys;H;2003-11-24
DE CORTE;Mattias;H;2001-05-25
HARENG;Louis;H;2003-04-14
DEVILLEPOIX;Maxime;H;1998-10-16
DELPY;Enzo;H;2003-04-14
CELLIER;Matthieu;M;2001-06-27
IKLI;Anas;M;2002-12-12